…
```
## The following objects are masked from 'package:base':
## 
##     intersect, setdiff, setequal, union
```

Next let's summarize the number of steps taken each day

```r
Step_count_by_day <- activity %>%  group_by(date) %>% summarise(sum=sum(steps, na.rm=T))
Step_count_by_day
```

```
## # A tibble: 61 x 2
##    date         sum
##    <date>     <int>
##  1 2012-10-01     0
##  2 2012-10-02   126
##  3 2012-10-03 11352
##  4 2012-10-04 12116
##  5 2012-10-05 13294
##  6 2012-10-06 15420
##  7 2012-10-07 11015
##  8 2012-10-08     0
##  9 2012-10-09 12811
## 10 2012-10-10  9900
## # … with 51 more rows
```
…
```
## [1] 10395
```


## What is the average daily activity pattern?
First let's create a new dataframe of the mean number of steps for each 5 min time interval over the entire study period

```r
Step_mean_by_interval <- activity %>%  group_by(interval) %>% summarise(mean=mean(steps, na.rm=T))
Step_mean_by_interval
```

```
## # A tibble: 288 x 2
##    interval   mean
##       <int>  <dbl>
##  1        0 1.72  
##  2        5 0.340 
##  3       10 0.132 
##  4       15 0.151 
##  5       20 0.0755
##  6       25 2.09  
##  7       30 0.528 
##  8       35 0.868 
##  9       40 0     
## 10       45 1.47  
## # … with 278 more rows
```
…
Create a new dataframe with the missing step data imputed with the mean number of steps

```r
activity_noNA <- subset(activity, select= c(2:4))
```

Next let's re-calculate the number of steps taken each day

```r
Step_count_by_day2 <- activity_noNA %>%  group_by(date) %>% summarise(sum=sum(steps2, na.rm=T))
Step_count_by_day2
```

```
## # A tibble: 61 x 2
##    date          sum
##    <date>      <dbl>
##  1 2012-10-01 10766.
##  2 2012-10-02   126 
##  3 2012-10-03 11352 
##  4 2012-10-04 12116 
##  5 2012-10-05 13294 
##  6 2012-10-06 15420 
##  7 2012-10-07 11015 
##  8 2012-10-08 10766.
##  9 2012-10-09 12811 
## 10 2012-10-10  9900 
## # … with 51 more rows
```
…
